[
 {
   "Area": "City of London",
   "Fatal 1999": 1,
   "Serious 1999": 59,
   "Slight 1999": 410,
   "Total 1999": 470,
   "Fatal 2000": 4,
   "Serious 2000": 42,
   "Slight 2000": 371,
   "Total 2000": 417,
   "Fatal 2001": 2,
   "Serious 2001": 52,
   "Slight 2001": 369,
   "Total 2001": 423,
   "Fatal 2002": 3,
   "Serious 2002": 46,
   "Slight 2002": 332,
   "Total 2002": 381,
   "Fatal 2003": 1,
   "Serious 2003": 35,
   "Slight 2003": 258,
   "Total 2003": 294,
   "Fatal 2004": 3,
   "Serious 2004": 38,
   "Slight 2004": 273,
   "Total 2004": 314,
   "Fatal 2005": 1,
   "Serious 2005": 39,
   "Slight 2005": 271,
   "Total 2005": 311,
   "Fatal 2006": 1,
   "Serious 2006": 58,
   "Slight 2006": 296,
   "Total 2006": 355,
   "Fatal 2007": 2,
   "Serious 2007": 44,
   "Slight 2007": 295,
   "Total 2007": 341,
   "Fatal 2008": 2,
   "Serious 2008": 49,
   "Slight 2008": 290,
   "Total 2008": 341,
   "Fatal 2009": 2,
   "Serious 2009": 41,
   "Slight 2009": 257,
   "Total 2009": 300,
   "Fatal 2010": 1,
   "Serious 2010": 40,
   "Slight 2010": 294,
   "Total 2010": 335,
   "Fatal 2011": 0,
   "Serious 2011": 49,
   "Slight 2011": 306,
   "Total 2011": 355,
   "Fatal 2012": 3,
   "Serious 2012": 55,
   "Slight 2012": 318,
   "Total 2012": 376,
   "Fatal 2013": 1,
   "Serious 2013": 56,
   "Slight 2013": 251,
   "Total 2013": 308,
   "Fatal 2014": 4,
   "Serious 2014": 50,
   "Slight 2014": 294,
   "Total 2014": 348
 },
 {
   "Area": "Barking and Dagenham",
   "Fatal 1999": 6,
   "Serious 1999": 95,
   "Slight 1999": 654,
   "Total 1999": 755,
   "Fatal 2000": 6,
   "Serious 2000": 90,
   "Slight 2000": 675,
   "Total 2000": 771,
   "Fatal 2001": 3,
   "Serious 2001": 99,
   "Slight 2001": 594,
   "Total 2001": 696,
   "Fatal 2002": 9,
   "Serious 2002": 81,
   "Slight 2002": 526,
   "Total 2002": 616,
   "Fatal 2003": 6,
   "Serious 2003": 88,
   "Slight 2003": 486,
   "Total 2003": 580,
   "Fatal 2004": 8,
   "Serious 2004": 69,
   "Slight 2004": 539,
   "Total 2004": 616,
   "Fatal 2005": 6,
   "Serious 2005": 42,
   "Slight 2005": 495,
   "Total 2005": 543,
   "Fatal 2006": 4,
   "Serious 2006": 58,
   "Slight 2006": 463,
   "Total 2006": 525,
   "Fatal 2007": 7,
   "Serious 2007": 46,
   "Slight 2007": 386,
   "Total 2007": 439,
   "Fatal 2008": 8,
   "Serious 2008": 47,
   "Slight 2008": 424,
   "Total 2008": 479,
   "Fatal 2009": 2,
   "Serious 2009": 40,
   "Slight 2009": 362,
   "Total 2009": 404,
   "Fatal 2010": 3,
   "Serious 2010": 39,
   "Slight 2010": 405,
   "Total 2010": 447,
   "Fatal 2011": 4,
   "Serious 2011": 41,
   "Slight 2011": 431,
   "Total 2011": 476,
   "Fatal 2012": 2,
   "Serious 2012": 42,
   "Slight 2012": 392,
   "Total 2012": 436,
   "Fatal 2013": 5,
   "Serious 2013": 33,
   "Slight 2013": 393,
   "Total 2013": 431,
   "Fatal 2014": 2,
   "Serious 2014": 38,
   "Slight 2014": 467,
   "Total 2014": 507
 },
 {
   "Area": "Barnet",
   "Fatal 1999": 15,
   "Serious 1999": 220,
   "Slight 1999": 1343,
   "Total 1999": 1578,
   "Fatal 2000": 8,
   "Serious 2000": 217,
   "Slight 2000": 1326,
   "Total 2000": 1551,
   "Fatal 2001": 11,
   "Serious 2001": 210,
   "Slight 2001": 1249,
   "Total 2001": 147,
   "Fatal 2002": 14,
   "Serious 2002": 212,
   "Slight 2002": 1231,
   "Total 2002": 1457,
   "Fatal 2003": 19,
   "Serious 2003": 190,
   "Slight 2003": 1146,
   "Total 2003": 1355,
   "Fatal 2004": 12,
   "Serious 2004": 142,
   "Slight 2004": 11,
   "Total 2004": 1254,
   "Fatal 2005": 12,
   "Serious 2005": 125,
   "Slight 2005": 1,
   "Total 2005": 1137,
   "Fatal 2006": 16,
   "Serious 2006": 124,
   "Slight 2006": 947,
   "Total 2006": 1087,
   "Fatal 2007": 14,
   "Serious 2007": 133,
   "Slight 2007": 942,
   "Total 2007": 1089,
   "Fatal 2008": 15,
   "Serious 2008": 111,
   "Slight 2008": 833,
   "Total 2008": 959,
   "Fatal 2009": 8,
   "Serious 2009": 118,
   "Slight 2009": 969,
   "Total 2009": 1095,
   "Fatal 2010": 9,
   "Serious 2010": 112,
   "Slight 2010": 1086,
   "Total 2010": 1207,
   "Fatal 2011": 8,
   "Serious 2011": 125,
   "Slight 2011": 980,
   "Total 2011": 1113,
   "Fatal 2012": 7,
   "Serious 2012": 102,
   "Slight 2012": 911,
   "Total 2012": 1020,
   "Fatal 2013": 8,
   "Serious 2013": 118,
   "Slight 2013": 867,
   "Total 2013": 993,
   "Fatal 2014": 5,
   "Serious 2014": 91,
   "Slight 2014": 887,
   "Total 2014": 983
 },
 {
   "Area": "Bexley",
   "Fatal 1999": 3,
   "Serious 1999": 136,
   "Slight 1999": 589,
   "Total 1999": 728,
   "Fatal 2000": 5,
   "Serious 2000": 121,
   "Slight 2000": 589,
   "Total 2000": 715,
   "Fatal 2001": 8,
   "Serious 2001": 115,
   "Slight 2001": 597,
   "Total 2001": 720,
   "Fatal 2002": 8,
   "Serious 2002": 105,
   "Slight 2002": 636,
   "Total 2002": 749,
   "Fatal 2003": 4,
   "Serious 2003": 105,
   "Slight 2003": 496,
   "Total 2003": 605,
   "Fatal 2004": 2,
   "Serious 2004": 72,
   "Slight 2004": 500,
   "Total 2004": 574,
   "Fatal 2005": 6,
   "Serious 2005": 77,
   "Slight 2005": 458,
   "Total 2005": 541,
   "Fatal 2006": 6,
   "Serious 2006": 83,
   "Slight 2006": 472,
   "Total 2006": 561,
   "Fatal 2007": 5,
   "Serious 2007": 83,
   "Slight 2007": 370,
   "Total 2007": 458,
   "Fatal 2008": 0,
   "Serious 2008": 64,
   "Slight 2008": 448,
   "Total 2008": 512,
   "Fatal 2009": 5,
   "Serious 2009": 67,
   "Slight 2009": 413,
   "Total 2009": 485,
   "Fatal 2010": 2,
   "Serious 2010": 57,
   "Slight 2010": 413,
   "Total 2010": 472,
   "Fatal 2011": 5,
   "Serious 2011": 43,
   "Slight 2011": 406,
   "Total 2011": 454,
   "Fatal 2012": 4,
   "Serious 2012": 49,
   "Slight 2012": 383,
   "Total 2012": 436,
   "Fatal 2013": 1,
   "Serious 2013": 30,
   "Slight 2013": 373,
   "Total 2013": 404,
   "Fatal 2014": 1,
   "Serious 2014": 22,
   "Slight 2014": 433,
   "Total 2014": 456
 },
 {
   "Area": "Brent",
   "Fatal 1999": 11,
   "Serious 1999": 199,
   "Slight 1999": 1128,
   "Total 1999": 1338,
   "Fatal 2000": 14,
   "Serious 2000": 182,
   "Slight 2000": 1141,
   "Total 2000": 1337,
   "Fatal 2001": 9,
   "Serious 2001": 162,
   "Slight 2001": 1065,
   "Total 2001": 1236,
   "Fatal 2002": 4,
   "Serious 2002": 161,
   "Slight 2002": 1034,
   "Total 2002": 1199,
   "Fatal 2003": 2,
   "Serious 2003": 172,
   "Slight 2003": 965,
   "Total 2003": 1139,
   "Fatal 2004": 5,
   "Serious 2004": 143,
   "Slight 2004": 859,
   "Total 2004": 1007,
   "Fatal 2005": 7,
   "Serious 2005": 106,
   "Slight 2005": 839,
   "Total 2005": 952,
   "Fatal 2006": 10,
   "Serious 2006": 90,
   "Slight 2006": 689,
   "Total 2006": 789,
   "Fatal 2007": 10,
   "Serious 2007": 83,
   "Slight 2007": 611,
   "Total 2007": 704,
   "Fatal 2008": 7,
   "Serious 2008": 84,
   "Slight 2008": 569,
   "Total 2008": 660,
   "Fatal 2009": 8,
   "Serious 2009": 82,
   "Slight 2009": 625,
   "Total 2009": 715,
   "Fatal 2010": 3,
   "Serious 2010": 76,
   "Slight 2010": 699,
   "Total 2010": 778,
   "Fatal 2011": 3,
   "Serious 2011": 65,
   "Slight 2011": 693,
   "Total 2011": 761,
   "Fatal 2012": 4,
   "Serious 2012": 79,
   "Slight 2012": 737,
   "Total 2012": 820,
   "Fatal 2013": 3,
   "Serious 2013": 78,
   "Slight 2013": 708,
   "Total 2013": 789,
   "Fatal 2014": 2,
   "Serious 2014": 82,
   "Slight 2014": 826,
   "Total 2014": 910
 },
 {
   "Area": "Bromley",
   "Fatal 1999": 14,
   "Serious 1999": 185,
   "Slight 1999": 956,
   "Total 1999": 1155,
   "Fatal 2000": 9,
   "Serious 2000": 154,
   "Slight 2000": 850,
   "Total 2000": 1013,
   "Fatal 2001": 9,
   "Serious 2001": 164,
   "Slight 2001": 849,
   "Total 2001": 1022,
   "Fatal 2002": 9,
   "Serious 2002": 190,
   "Slight 2002": 907,
   "Total 2002": 1106,
   "Fatal 2003": 13,
   "Serious 2003": 146,
   "Slight 2003": 728,
   "Total 2003": 887,
   "Fatal 2004": 10,
   "Serious 2004": 129,
   "Slight 2004": 761,
   "Total 2004": 900,
   "Fatal 2005": 9,
   "Serious 2005": 113,
   "Slight 2005": 735,
   "Total 2005": 857,
   "Fatal 2006": 12,
   "Serious 2006": 132,
   "Slight 2006": 612,
   "Total 2006": 756,
   "Fatal 2007": 7,
   "Serious 2007": 121,
   "Slight 2007": 548,
   "Total 2007": 676,
   "Fatal 2008": 13,
   "Serious 2008": 104,
   "Slight 2008": 566,
   "Total 2008": 683,
   "Fatal 2009": 9,
   "Serious 2009": 107,
   "Slight 2009": 584,
   "Total 2009": 700,
   "Fatal 2010": 3,
   "Serious 2010": 80,
   "Slight 2010": 597,
   "Total 2010": 680,
   "Fatal 2011": 6,
   "Serious 2011": 69,
   "Slight 2011": 625,
   "Total 2011": 700,
   "Fatal 2012": 7,
   "Serious 2012": 78,
   "Slight 2012": 589,
   "Total 2012": 674,
   "Fatal 2013": 5,
   "Serious 2013": 61,
   "Slight 2013": 586,
   "Total 2013": 652,
   "Fatal 2014": 3,
   "Serious 2014": 46,
   "Slight 2014": 694,
   "Total 2014": 743
 },
 {
   "Area": "Camden",
   "Fatal 1999": 10,
   "Serious 1999": 186,
   "Slight 1999": 1255,
   "Total 1999": 1451,
   "Fatal 2000": 8,
   "Serious 2000": 228,
   "Slight 2000": 1198,
   "Total 2000": 1434,
   "Fatal 2001": 9,
   "Serious 2001": 200,
   "Slight 2001": 1232,
   "Total 2001": 1441,
   "Fatal 2002": 8,
   "Serious 2002": 208,
   "Slight 2002": 1009,
   "Total 2002": 1225,
   "Fatal 2003": 5,
   "Serious 2003": 179,
   "Slight 2003": 958,
   "Total 2003": 1142,
   "Fatal 2004": 4,
   "Serious 2004": 139,
   "Slight 2004": 901,
   "Total 2004": 1044,
   "Fatal 2005": 2,
   "Serious 2005": 126,
   "Slight 2005": 807,
   "Total 2005": 935,
   "Fatal 2006": 8,
   "Serious 2006": 114,
   "Slight 2006": 664,
   "Total 2006": 786,
   "Fatal 2007": 6,
   "Serious 2007": 94,
   "Slight 2007": 648,
   "Total 2007": 748,
   "Fatal 2008": 4,
   "Serious 2008": 112,
   "Slight 2008": 613,
   "Total 2008": 729,
   "Fatal 2009": 5,
   "Serious 2009": 133,
   "Slight 2009": 677,
   "Total 2009": 815,
   "Fatal 2010": 7,
   "Serious 2010": 101,
   "Slight 2010": 748,
   "Total 2010": 856,
   "Fatal 2011": 6,
   "Serious 2011": 92,
   "Slight 2011": 747,
   "Total 2011": 845,
   "Fatal 2012": 6,
   "Serious 2012": 106,
   "Slight 2012": 637,
   "Total 2012": 749,
   "Fatal 2013": 4,
   "Serious 2013": 99,
   "Slight 2013": 682,
   "Total 2013": 785,
   "Fatal 2014": 3,
   "Serious 2014": 65,
   "Slight 2014": 853,
   "Total 2014": 921
 },
 {
   "Area": "Croydon",
   "Fatal 1999": 7,
   "Serious 1999": 227,
   "Slight 1999": 1325,
   "Total 1999": 1559,
   "Fatal 2000": 15,
   "Serious 2000": 215,
   "Slight 2000": 1186,
   "Total 2000": 1416,
   "Fatal 2001": 8,
   "Serious 2001": 234,
   "Slight 2001": 1051,
   "Total 2001": 1293,
   "Fatal 2002": 13,
   "Serious 2002": 198,
   "Slight 2002": 1019,
   "Total 2002": 123,
   "Fatal 2003": 13,
   "Serious 2003": 191,
   "Slight 2003": 941,
   "Total 2003": 1145,
   "Fatal 2004": 10,
   "Serious 2004": 133,
   "Slight 2004": 1008,
   "Total 2004": 1151,
   "Fatal 2005": 7,
   "Serious 2005": 136,
   "Slight 2005": 998,
   "Total 2005": 1141,
   "Fatal 2006": 6,
   "Serious 2006": 125,
   "Slight 2006": 856,
   "Total 2006": 987,
   "Fatal 2007": 8,
   "Serious 2007": 132,
   "Slight 2007": 793,
   "Total 2007": 933,
   "Fatal 2008": 4,
   "Serious 2008": 113,
   "Slight 2008": 816,
   "Total 2008": 933,
   "Fatal 2009": 5,
   "Serious 2009": 93,
   "Slight 2009": 807,
   "Total 2009": 905,
   "Fatal 2010": 5,
   "Serious 2010": 81,
   "Slight 2010": 830,
   "Total 2010": 916,
   "Fatal 2011": 9,
   "Serious 2011": 95,
   "Slight 2011": 862,
   "Total 2011": 966,
   "Fatal 2012": 5,
   "Serious 2012": 96,
   "Slight 2012": 851,
   "Total 2012": 952,
   "Fatal 2013": 13,
   "Serious 2013": 51,
   "Slight 2013": 825,
   "Total 2013": 889,
   "Fatal 2014": 8,
   "Serious 2014": 61,
   "Slight 2014": 909,
   "Total 2014": 978
 },
 {
   "Area": "Ealing",
   "Fatal 1999": 17,
   "Serious 1999": 207,
   "Slight 1999": 1388,
   "Total 1999": 1612,
   "Fatal 2000": 8,
   "Serious 2000": 179,
   "Slight 2000": 1348,
   "Total 2000": 1535,
   "Fatal 2001": 16,
   "Serious 2001": 185,
   "Slight 2001": 1386,
   "Total 2001": 1587,
   "Fatal 2002": 16,
   "Serious 2002": 164,
   "Slight 2002": 1313,
   "Total 2002": 1493,
   "Fatal 2003": 17,
   "Serious 2003": 166,
   "Slight 2003": 1203,
   "Total 2003": 1386,
   "Fatal 2004": 7,
   "Serious 2004": 131,
   "Slight 2004": 1033,
   "Total 2004": 1171,
   "Fatal 2005": 8,
   "Serious 2005": 110,
   "Slight 2005": 990,
   "Total 2005": 1108,
   "Fatal 2006": 10,
   "Serious 2006": 126,
   "Slight 2006": 851,
   "Total 2006": 987,
   "Fatal 2007": 13,
   "Serious 2007": 117,
   "Slight 2007": 785,
   "Total 2007": 915,
   "Fatal 2008": 13,
   "Serious 2008": 95,
   "Slight 2008": 706,
   "Total 2008": 814,
   "Fatal 2009": 7,
   "Serious 2009": 109,
   "Slight 2009": 786,
   "Total 2009": 902,
   "Fatal 2010": 3,
   "Serious 2010": 78,
   "Slight 2010": 788,
   "Total 2010": 869,
   "Fatal 2011": 5,
   "Serious 2011": 61,
   "Slight 2011": 759,
   "Total 2011": 825,
   "Fatal 2012": 8,
   "Serious 2012": 78,
   "Slight 2012": 839,
   "Total 2012": 925,
   "Fatal 2013": 4,
   "Serious 2013": 74,
   "Slight 2013": 868,
   "Total 2013": 946,
   "Fatal 2014": 1,
   "Serious 2014": 77,
   "Slight 2014": 968,
   "Total 2014": 1046
 },
 {
   "Area": "Enfield",
   "Fatal 1999": 8,
   "Serious 1999": 203,
   "Slight 1999": 1174,
   "Total 1999": 1385,
   "Fatal 2000": 12,
   "Serious 2000": 207,
   "Slight 2000": 1227,
   "Total 2000": 1446,
   "Fatal 2001": 14,
   "Serious 2001": 197,
   "Slight 2001": 112,
   "Total 2001": 1331,
   "Fatal 2002": 7,
   "Serious 2002": 174,
   "Slight 2002": 1198,
   "Total 2002": 1379,
   "Fatal 2003": 7,
   "Serious 2003": 169,
   "Slight 2003": 1021,
   "Total 2003": 1197,
   "Fatal 2004": 8,
   "Serious 2004": 146,
   "Slight 2004": 948,
   "Total 2004": 1102,
   "Fatal 2005": 12,
   "Serious 2005": 100,
   "Slight 2005": 864,
   "Total 2005": 976,
   "Fatal 2006": 20,
   "Serious 2006": 96,
   "Slight 2006": 707,
   "Total 2006": 823,
   "Fatal 2007": 11,
   "Serious 2007": 73,
   "Slight 2007": 701,
   "Total 2007": 785,
   "Fatal 2008": 6,
   "Serious 2008": 71,
   "Slight 2008": 591,
   "Total 2008": 668,
   "Fatal 2009": 9,
   "Serious 2009": 78,
   "Slight 2009": 667,
   "Total 2009": 754,
   "Fatal 2010": 7,
   "Serious 2010": 86,
   "Slight 2010": 737,
   "Total 2010": 830,
   "Fatal 2011": 12,
   "Serious 2011": 78,
   "Slight 2011": 755,
   "Total 2011": 845,
   "Fatal 2012": 6,
   "Serious 2012": 74,
   "Slight 2012": 721,
   "Total 2012": 801,
   "Fatal 2013": 6,
   "Serious 2013": 61,
   "Slight 2013": 696,
   "Total 2013": 763,
   "Fatal 2014": 4,
   "Serious 2014": 47,
   "Slight 2014": 741,
   "Total 2014": 792
 },
 {
   "Area": "Greenwich",
   "Fatal 1999": 4,
   "Serious 1999": 162,
   "Slight 1999": 897,
   "Total 1999": 1063,
   "Fatal 2000": 4,
   "Serious 2000": 167,
   "Slight 2000": 899,
   "Total 2000": 107,
   "Fatal 2001": 13,
   "Serious 2001": 162,
   "Slight 2001": 936,
   "Total 2001": 1111,
   "Fatal 2002": 9,
   "Serious 2002": 153,
   "Slight 2002": 882,
   "Total 2002": 1044,
   "Fatal 2003": 7,
   "Serious 2003": 126,
   "Slight 2003": 872,
   "Total 2003": 1005,
   "Fatal 2004": 10,
   "Serious 2004": 91,
   "Slight 2004": 764,
   "Total 2004": 865,
   "Fatal 2005": 7,
   "Serious 2005": 94,
   "Slight 2005": 697,
   "Total 2005": 798,
   "Fatal 2006": 11,
   "Serious 2006": 100,
   "Slight 2006": 643,
   "Total 2006": 754,
   "Fatal 2007": 8,
   "Serious 2007": 108,
   "Slight 2007": 629,
   "Total 2007": 745,
   "Fatal 2008": 10,
   "Serious 2008": 102,
   "Slight 2008": 646,
   "Total 2008": 758,
   "Fatal 2009": 8,
   "Serious 2009": 75,
   "Slight 2009": 622,
   "Total 2009": 705,
   "Fatal 2010": 5,
   "Serious 2010": 90,
   "Slight 2010": 599,
   "Total 2010": 694,
   "Fatal 2011": 2,
   "Serious 2011": 84,
   "Slight 2011": 662,
   "Total 2011": 748,
   "Fatal 2012": 3,
   "Serious 2012": 66,
   "Slight 2012": 563,
   "Total 2012": 632,
   "Fatal 2013": 2,
   "Serious 2013": 26,
   "Slight 2013": 537,
   "Total 2013": 565,
   "Fatal 2014": 4,
   "Serious 2014": 33,
   "Slight 2014": 600,
   "Total 2014": 637
 },
 {
   "Area": "Hackney",
   "Fatal 1999": 4,
   "Serious 1999": 181,
   "Slight 1999": 1046,
   "Total 1999": 1231,
   "Fatal 2000": 9,
   "Serious 2000": 165,
   "Slight 2000": 1037,
   "Total 2000": 1211,
   "Fatal 2001": 8,
   "Serious 2001": 220,
   "Slight 2001": 1014,
   "Total 2001": 1242,
   "Fatal 2002": 10,
   "Serious 2002": 157,
   "Slight 2002": 870,
   "Total 2002": 1037,
   "Fatal 2003": 4,
   "Serious 2003": 142,
   "Slight 2003": 859,
   "Total 2003": 1005,
   "Fatal 2004": 8,
   "Serious 2004": 134,
   "Slight 2004": 753,
   "Total 2004": 895,
   "Fatal 2005": 4,
   "Serious 2005": 105,
   "Slight 2005": 790,
   "Total 2005": 899,
   "Fatal 2006": 7,
   "Serious 2006": 103,
   "Slight 2006": 641,
   "Total 2006": 751,
   "Fatal 2007": 2,
   "Serious 2007": 121,
   "Slight 2007": 671,
   "Total 2007": 794,
   "Fatal 2008": 6,
   "Serious 2008": 143,
   "Slight 2008": 681,
   "Total 2008": 830,
   "Fatal 2009": 4,
   "Serious 2009": 93,
   "Slight 2009": 709,
   "Total 2009": 806,
   "Fatal 2010": 5,
   "Serious 2010": 93,
   "Slight 2010": 679,
   "Total 2010": 777,
   "Fatal 2011": 3,
   "Serious 2011": 104,
   "Slight 2011": 694,
   "Total 2011": 801,
   "Fatal 2012": 5,
   "Serious 2012": 141,
   "Slight 2012": 732,
   "Total 2012": 878,
   "Fatal 2013": 5,
   "Serious 2013": 76,
   "Slight 2013": 725,
   "Total 2013": 806,
   "Fatal 2014": 7,
   "Serious 2014": 53,
   "Slight 2014": 830,
   "Total 2014": 890
 },
 {
   "Area": "Hammersmith and Fulham",
   "Fatal 1999": 6,
   "Serious 1999": 148,
   "Slight 1999": 801,
   "Total 1999": 955,
   "Fatal 2000": 4,
   "Serious 2000": 126,
   "Slight 2000": 796,
   "Total 2000": 926,
   "Fatal 2001": 6,
   "Serious 2001": 135,
   "Slight 2001": 757,
   "Total 2001": 898,
   "Fatal 2002": 4,
   "Serious 2002": 113,
   "Slight 2002": 681,
   "Total 2002": 798,
   "Fatal 2003": 6,
   "Serious 2003": 94,
   "Slight 2003": 692,
   "Total 2003": 792,
   "Fatal 2004": 6,
   "Serious 2004": 102,
   "Slight 2004": 656,
   "Total 2004": 764,
   "Fatal 2005": 10,
   "Serious 2005": 103,
   "Slight 2005": 617,
   "Total 2005": 730,
   "Fatal 2006": 6,
   "Serious 2006": 120,
   "Slight 2006": 520,
   "Total 2006": 646,
   "Fatal 2007": 6,
   "Serious 2007": 95,
   "Slight 2007": 576,
   "Total 2007": 677,
   "Fatal 2008": 3,
   "Serious 2008": 91,
   "Slight 2008": 497,
   "Total 2008": 591,
   "Fatal 2009": 3,
   "Serious 2009": 84,
   "Slight 2009": 550,
   "Total 2009": 637,
   "Fatal 2010": 2,
   "Serious 2010": 70,
   "Slight 2010": 532,
   "Total 2010": 604,
   "Fatal 2011": 3,
   "Serious 2011": 72,
   "Slight 2011": 595,
   "Total 2011": 670,
   "Fatal 2012": 2,
   "Serious 2012": 77,
   "Slight 2012": 559,
   "Total 2012": 638,
   "Fatal 2013": 3,
   "Serious 2013": 50,
   "Slight 2013": 546,
   "Total 2013": 599,
   "Fatal 2014": 3,
   "Serious 2014": 64,
   "Slight 2014": 614,
   "Total 2014": 681
 },
 {
   "Area": "Haringey",
   "Fatal 1999": 2,
   "Serious 1999": 140,
   "Slight 1999": 843,
   "Total 1999": 985,
   "Fatal 2000": 7,
   "Serious 2000": 189,
   "Slight 2000": 1055,
   "Total 2000": 1251,
   "Fatal 2001": 13,
   "Serious 2001": 162,
   "Slight 2001": 963,
   "Total 2001": 1138,
   "Fatal 2002": 12,
   "Serious 2002": 153,
   "Slight 2002": 851,
   "Total 2002": 1016,
   "Fatal 2003": 12,
   "Serious 2003": 157,
   "Slight 2003": 829,
   "Total 2003": 998,
   "Fatal 2004": 3,
   "Serious 2004": 116,
   "Slight 2004": 735,
   "Total 2004": 854,
   "Fatal 2005": 7,
   "Serious 2005": 82,
   "Slight 2005": 619,
   "Total 2005": 708,
   "Fatal 2006": 8,
   "Serious 2006": 98,
   "Slight 2006": 616,
   "Total 2006": 722,
   "Fatal 2007": 4,
   "Serious 2007": 70,
   "Slight 2007": 569,
   "Total 2007": 643,
   "Fatal 2008": 3,
   "Serious 2008": 73,
   "Slight 2008": 548,
   "Total 2008": 624,
   "Fatal 2009": 6,
   "Serious 2009": 82,
   "Slight 2009": 668,
   "Total 2009": 756,
   "Fatal 2010": 1,
   "Serious 2010": 76,
   "Slight 2010": 720,
   "Total 2010": 797,
   "Fatal 2011": 4,
   "Serious 2011": 72,
   "Slight 2011": 663,
   "Total 2011": 739,
   "Fatal 2012": 3,
   "Serious 2012": 100,
   "Slight 2012": 646,
   "Total 2012": 749,
   "Fatal 2013": 5,
   "Serious 2013": 98,
   "Slight 2013": 663,
   "Total 2013": 766,
   "Fatal 2014": 4,
   "Serious 2014": 78,
   "Slight 2014": 816,
   "Total 2014": 898
 },
 {
   "Area": "Harrow",
   "Fatal 1999": 8,
   "Serious 1999": 94,
   "Slight 1999": 598,
   "Total 1999": 700,
   "Fatal 2000": 7,
   "Serious 2000": 93,
   "Slight 2000": 514,
   "Total 2000": 614,
   "Fatal 2001": 5,
   "Serious 2001": 90,
   "Slight 2001": 550,
   "Total 2001": 645,
   "Fatal 2002": 4,
   "Serious 2002": 74,
   "Slight 2002": 482,
   "Total 2002": 560,
   "Fatal 2003": 9,
   "Serious 2003": 62,
   "Slight 2003": 477,
   "Total 2003": 548,
   "Fatal 2004": 4,
   "Serious 2004": 76,
   "Slight 2004": 502,
   "Total 2004": 582,
   "Fatal 2005": 3,
   "Serious 2005": 63,
   "Slight 2005": 438,
   "Total 2005": 504,
   "Fatal 2006": 3,
   "Serious 2006": 52,
   "Slight 2006": 399,
   "Total 2006": 454,
   "Fatal 2007": 2,
   "Serious 2007": 49,
   "Slight 2007": 336,
   "Total 2007": 387,
   "Fatal 2008": 0,
   "Serious 2008": 45,
   "Slight 2008": 327,
   "Total 2008": 372,
   "Fatal 2009": 2,
   "Serious 2009": 39,
   "Slight 2009": 360,
   "Total 2009": 401,
   "Fatal 2010": 2,
   "Serious 2010": 31,
   "Slight 2010": 395,
   "Total 2010": 428,
   "Fatal 2011": 3,
   "Serious 2011": 33,
   "Slight 2011": 331,
   "Total 2011": 367,
   "Fatal 2012": 3,
   "Serious 2012": 42,
   "Slight 2012": 347,
   "Total 2012": 392,
   "Fatal 2013": 1,
   "Serious 2013": 35,
   "Slight 2013": 317,
   "Total 2013": 353,
   "Fatal 2014": 3,
   "Serious 2014": 46,
   "Slight 2014": 437,
   "Total 2014": 486
 },
 {
   "Area": "Havering",
   "Fatal 1999": 13,
   "Serious 1999": 128,
   "Slight 1999": 891,
   "Total 1999": 1032,
   "Fatal 2000": 9,
   "Serious 2000": 122,
   "Slight 2000": 695,
   "Total 2000": 826,
   "Fatal 2001": 13,
   "Serious 2001": 129,
   "Slight 2001": 831,
   "Total 2001": 973,
   "Fatal 2002": 7,
   "Serious 2002": 152,
   "Slight 2002": 756,
   "Total 2002": 915,
   "Fatal 2003": 16,
   "Serious 2003": 135,
   "Slight 2003": 696,
   "Total 2003": 847,
   "Fatal 2004": 8,
   "Serious 2004": 103,
   "Slight 2004": 695,
   "Total 2004": 806,
   "Fatal 2005": 6,
   "Serious 2005": 64,
   "Slight 2005": 649,
   "Total 2005": 719,
   "Fatal 2006": 3,
   "Serious 2006": 100,
   "Slight 2006": 631,
   "Total 2006": 734,
   "Fatal 2007": 10,
   "Serious 2007": 101,
   "Slight 2007": 582,
   "Total 2007": 693,
   "Fatal 2008": 4,
   "Serious 2008": 68,
   "Slight 2008": 603,
   "Total 2008": 675,
   "Fatal 2009": 5,
   "Serious 2009": 64,
   "Slight 2009": 514,
   "Total 2009": 583,
   "Fatal 2010": 4,
   "Serious 2010": 55,
   "Slight 2010": 560,
   "Total 2010": 619,
   "Fatal 2011": 8,
   "Serious 2011": 57,
   "Slight 2011": 542,
   "Total 2011": 607,
   "Fatal 2012": 7,
   "Serious 2012": 63,
   "Slight 2012": 522,
   "Total 2012": 592,
   "Fatal 2013": 4,
   "Serious 2013": 45,
   "Slight 2013": 478,
   "Total 2013": 527,
   "Fatal 2014": 4,
   "Serious 2014": 38,
   "Slight 2014": 555,
   "Total 2014": 597
 },
 {
   "Area": "Hillingdon",
   "Fatal 1999": 15,
   "Serious 1999": 167,
   "Slight 1999": 988,
   "Total 1999": 117,
   "Fatal 2000": 10,
   "Serious 2000": 164,
   "Slight 2000": 1059,
   "Total 2000": 1233,
   "Fatal 2001": 5,
   "Serious 2001": 170,
   "Slight 2001": 1021,
   "Total 2001": 1196,
   "Fatal 2002": 6,
   "Serious 2002": 148,
   "Slight 2002": 985,
   "Total 2002": 1139,
   "Fatal 2003": 5,
   "Serious 2003": 134,
   "Slight 2003": 913,
   "Total 2003": 1052,
   "Fatal 2004": 11,
   "Serious 2004": 135,
   "Slight 2004": 908,
   "Total 2004": 1054,
   "Fatal 2005": 7,
   "Serious 2005": 98,
   "Slight 2005": 789,
   "Total 2005": 894,
   "Fatal 2006": 6,
   "Serious 2006": 95,
   "Slight 2006": 712,
   "Total 2006": 813,
   "Fatal 2007": 9,
   "Serious 2007": 90,
   "Slight 2007": 686,
   "Total 2007": 785,
   "Fatal 2008": 13,
   "Serious 2008": 84,
   "Slight 2008": 656,
   "Total 2008": 753,
   "Fatal 2009": 5,
   "Serious 2009": 77,
   "Slight 2009": 650,
   "Total 2009": 732,
   "Fatal 2010": 8,
   "Serious 2010": 68,
   "Slight 2010": 746,
   "Total 2010": 822,
   "Fatal 2011": 5,
   "Serious 2011": 61,
   "Slight 2011": 684,
   "Total 2011": 750,
   "Fatal 2012": 5,
   "Serious 2012": 75,
   "Slight 2012": 721,
   "Total 2012": 801,
   "Fatal 2013": 2,
   "Serious 2013": 51,
   "Slight 2013": 490,
   "Total 2013": 543,
   "Fatal 2014": 4,
   "Serious 2014": 68,
   "Slight 2014": 628,
   "Total 2014": 700
 },
 {
   "Area": "Hounslow",
   "Fatal 1999": 8,
   "Serious 1999": 160,
   "Slight 1999": 936,
   "Total 1999": 1104,
   "Fatal 2000": 7,
   "Serious 2000": 169,
   "Slight 2000": 1046,
   "Total 2000": 1222,
   "Fatal 2001": 11,
   "Serious 2001": 159,
   "Slight 2001": 1025,
   "Total 2001": 1195,
   "Fatal 2002": 10,
   "Serious 2002": 168,
   "Slight 2002": 925,
   "Total 2002": 1103,
   "Fatal 2003": 7,
   "Serious 2003": 115,
   "Slight 2003": 898,
   "Total 2003": 102,
   "Fatal 2004": 13,
   "Serious 2004": 103,
   "Slight 2004": 775,
   "Total 2004": 891,
   "Fatal 2005": 13,
   "Serious 2005": 93,
   "Slight 2005": 723,
   "Total 2005": 829,
   "Fatal 2006": 13,
   "Serious 2006": 120,
   "Slight 2006": 653,
   "Total 2006": 786,
   "Fatal 2007": 9,
   "Serious 2007": 85,
   "Slight 2007": 649,
   "Total 2007": 743,
   "Fatal 2008": 3,
   "Serious 2008": 89,
   "Slight 2008": 649,
   "Total 2008": 741,
   "Fatal 2009": 5,
   "Serious 2009": 90,
   "Slight 2009": 630,
   "Total 2009": 725,
   "Fatal 2010": 7,
   "Serious 2010": 83,
   "Slight 2010": 680,
   "Total 2010": 770,
   "Fatal 2011": 7,
   "Serious 2011": 65,
   "Slight 2011": 716,
   "Total 2011": 788,
   "Fatal 2012": 2,
   "Serious 2012": 69,
   "Slight 2012": 660,
   "Total 2012": 731,
   "Fatal 2013": 2,
   "Serious 2013": 61,
   "Slight 2013": 690,
   "Total 2013": 753,
   "Fatal 2014": 3,
   "Serious 2014": 57,
   "Slight 2014": 833,
   "Total 2014": 893
 },
 {
   "Area": "Islington",
   "Fatal 1999": 9,
   "Serious 1999": 172,
   "Slight 1999": 1065,
   "Total 1999": 1246,
   "Fatal 2000": 10,
   "Serious 2000": 199,
   "Slight 2000": 1072,
   "Total 2000": 1281,
   "Fatal 2001": 8,
   "Serious 2001": 207,
   "Slight 2001": 103,
   "Total 2001": 1245,
   "Fatal 2002": 8,
   "Serious 2002": 160,
   "Slight 2002": 936,
   "Total 2002": 1104,
   "Fatal 2003": 9,
   "Serious 2003": 142,
   "Slight 2003": 849,
   "Total 2003": 1,
   "Fatal 2004": 2,
   "Serious 2004": 96,
   "Slight 2004": 719,
   "Total 2004": 817,
   "Fatal 2005": 4,
   "Serious 2005": 80,
   "Slight 2005": 655,
   "Total 2005": 739,
   "Fatal 2006": 2,
   "Serious 2006": 79,
   "Slight 2006": 566,
   "Total 2006": 647,
   "Fatal 2007": 7,
   "Serious 2007": 98,
   "Slight 2007": 494,
   "Total 2007": 599,
   "Fatal 2008": 4,
   "Serious 2008": 66,
   "Slight 2008": 521,
   "Total 2008": 591,
   "Fatal 2009": 3,
   "Serious 2009": 73,
   "Slight 2009": 646,
   "Total 2009": 722,
   "Fatal 2010": 2,
   "Serious 2010": 77,
   "Slight 2010": 666,
   "Total 2010": 745,
   "Fatal 2011": 4,
   "Serious 2011": 92,
   "Slight 2011": 757,
   "Total 2011": 853,
   "Fatal 2012": 1,
   "Serious 2012": 118,
   "Slight 2012": 671,
   "Total 2012": 790,
   "Fatal 2013": 3,
   "Serious 2013": 68,
   "Slight 2013": 691,
   "Total 2013": 762,
   "Fatal 2014": 1,
   "Serious 2014": 92,
   "Slight 2014": 758,
   "Total 2014": 851
 },
 {
   "Area": "Kensington and Chelsea",
   "Fatal 1999": 6,
   "Serious 1999": 148,
   "Slight 1999": 882,
   "Total 1999": 1036,
   "Fatal 2000": 5,
   "Serious 2000": 169,
   "Slight 2000": 881,
   "Total 2000": 1055,
   "Fatal 2001": 7,
   "Serious 2001": 140,
   "Slight 2001": 710,
   "Total 2001": 857,
   "Fatal 2002": 7,
   "Serious 2002": 133,
   "Slight 2002": 608,
   "Total 2002": 748,
   "Fatal 2003": 9,
   "Serious 2003": 109,
   "Slight 2003": 610,
   "Total 2003": 728,
   "Fatal 2004": 5,
   "Serious 2004": 95,
   "Slight 2004": 542,
   "Total 2004": 642,
   "Fatal 2005": 10,
   "Serious 2005": 102,
   "Slight 2005": 660,
   "Total 2005": 772,
   "Fatal 2006": 3,
   "Serious 2006": 108,
   "Slight 2006": 617,
   "Total 2006": 728,
   "Fatal 2007": 8,
   "Serious 2007": 101,
   "Slight 2007": 584,
   "Total 2007": 693,
   "Fatal 2008": 4,
   "Serious 2008": 107,
   "Slight 2008": 619,
   "Total 2008": 730,
   "Fatal 2009": 2,
   "Serious 2009": 87,
   "Slight 2009": 579,
   "Total 2009": 668,
   "Fatal 2010": 3,
   "Serious 2010": 75,
   "Slight 2010": 630,
   "Total 2010": 708,
   "Fatal 2011": 5,
   "Serious 2011": 75,
   "Slight 2011": 635,
   "Total 2011": 715,
   "Fatal 2012": 1,
   "Serious 2012": 93,
   "Slight 2012": 567,
   "Total 2012": 661,
   "Fatal 2013": 2,
   "Serious 2013": 59,
   "Slight 2013": 595,
   "Total 2013": 656,
   "Fatal 2014": 2,
   "Serious 2014": 66,
   "Slight 2014": 644,
   "Total 2014": 712
 },
 {
   "Area": "Kingston-upon-Thames",
   "Fatal 1999": 3,
   "Serious 1999": 75,
   "Slight 1999": 463,
   "Total 1999": 541,
   "Fatal 2000": 3,
   "Serious 2000": 67,
   "Slight 2000": 416,
   "Total 2000": 486,
   "Fatal 2001": 4,
   "Serious 2001": 82,
   "Slight 2001": 378,
   "Total 2001": 464,
   "Fatal 2002": 3,
   "Serious 2002": 82,
   "Slight 2002": 362,
   "Total 2002": 447,
   "Fatal 2003": 3,
   "Serious 2003": 73,
   "Slight 2003": 356,
   "Total 2003": 432,
   "Fatal 2004": 4,
   "Serious 2004": 53,
   "Slight 2004": 327,
   "Total 2004": 384,
   "Fatal 2005": 3,
   "Serious 2005": 54,
   "Slight 2005": 316,
   "Total 2005": 373,
   "Fatal 2006": 2,
   "Serious 2006": 69,
   "Slight 2006": 238,
   "Total 2006": 309,
   "Fatal 2007": 5,
   "Serious 2007": 43,
   "Slight 2007": 263,
   "Total 2007": 311,
   "Fatal 2008": 2,
   "Serious 2008": 56,
   "Slight 2008": 298,
   "Total 2008": 356,
   "Fatal 2009": 2,
   "Serious 2009": 45,
   "Slight 2009": 331,
   "Total 2009": 378,
   "Fatal 2010": 1,
   "Serious 2010": 43,
   "Slight 2010": 299,
   "Total 2010": 343,
   "Fatal 2011": 2,
   "Serious 2011": 42,
   "Slight 2011": 332,
   "Total 2011": 376,
   "Fatal 2012": 1,
   "Serious 2012": 32,
   "Slight 2012": 310,
   "Total 2012": 343,
   "Fatal 2013": 1,
   "Serious 2013": 34,
   "Slight 2013": 357,
   "Total 2013": 392,
   "Fatal 2014": 2,
   "Serious 2014": 37,
   "Slight 2014": 360,
   "Total 2014": 399
 },
 {
   "Area": "Lambeth",
   "Fatal 1999": 3,
   "Serious 1999": 266,
   "Slight 1999": 1637,
   "Total 1999": 1906,
   "Fatal 2000": 10,
   "Serious 2000": 252,
   "Slight 2000": 1539,
   "Total 2000": 1801,
   "Fatal 2001": 16,
   "Serious 2001": 236,
   "Slight 2001": 1478,
   "Total 2001": 173,
   "Fatal 2002": 9,
   "Serious 2002": 244,
   "Slight 2002": 1398,
   "Total 2002": 1651,
   "Fatal 2003": 13,
   "Serious 2003": 194,
   "Slight 2003": 1298,
   "Total 2003": 1505,
   "Fatal 2004": 4,
   "Serious 2004": 155,
   "Slight 2004": 1071,
   "Total 2004": 123,
   "Fatal 2005": 8,
   "Serious 2005": 148,
   "Slight 2005": 102,
   "Total 2005": 1176,
   "Fatal 2006": 9,
   "Serious 2006": 172,
   "Slight 2006": 900,
   "Total 2006": 1081,
   "Fatal 2007": 10,
   "Serious 2007": 166,
   "Slight 2007": 785,
   "Total 2007": 961,
   "Fatal 2008": 10,
   "Serious 2008": 137,
   "Slight 2008": 883,
   "Total 2008": 103,
   "Fatal 2009": 2,
   "Serious 2009": 160,
   "Slight 2009": 982,
   "Total 2009": 1144,
   "Fatal 2010": 2,
   "Serious 2010": 149,
   "Slight 2010": 955,
   "Total 2010": 1106,
   "Fatal 2011": 10,
   "Serious 2011": 156,
   "Slight 2011": 951,
   "Total 2011": 1117,
   "Fatal 2012": 6,
   "Serious 2012": 143,
   "Slight 2012": 920,
   "Total 2012": 1069,
   "Fatal 2013": 7,
   "Serious 2013": 117,
   "Slight 2013": 1045,
   "Total 2013": 1169,
   "Fatal 2014": 9,
   "Serious 2014": 87,
   "Slight 2014": 1167,
   "Total 2014": 1263
 },
 {
   "Area": "Lewisham",
   "Fatal 1999": 6,
   "Serious 1999": 200,
   "Slight 1999": 1133,
   "Total 1999": 1339,
   "Fatal 2000": 7,
   "Serious 2000": 192,
   "Slight 2000": 1063,
   "Total 2000": 1262,
   "Fatal 2001": 14,
   "Serious 2001": 188,
   "Slight 2001": 105,
   "Total 2001": 1252,
   "Fatal 2002": 9,
   "Serious 2002": 190,
   "Slight 2002": 101,
   "Total 2002": 1209,
   "Fatal 2003": 11,
   "Serious 2003": 162,
   "Slight 2003": 994,
   "Total 2003": 1167,
   "Fatal 2004": 5,
   "Serious 2004": 138,
   "Slight 2004": 889,
   "Total 2004": 1032,
   "Fatal 2005": 6,
   "Serious 2005": 129,
   "Slight 2005": 780,
   "Total 2005": 915,
   "Fatal 2006": 2,
   "Serious 2006": 119,
   "Slight 2006": 741,
   "Total 2006": 862,
   "Fatal 2007": 6,
   "Serious 2007": 111,
   "Slight 2007": 612,
   "Total 2007": 729,
   "Fatal 2008": 3,
   "Serious 2008": 106,
   "Slight 2008": 613,
   "Total 2008": 722,
   "Fatal 2009": 7,
   "Serious 2009": 99,
   "Slight 2009": 724,
   "Total 2009": 830,
   "Fatal 2010": 3,
   "Serious 2010": 100,
   "Slight 2010": 695,
   "Total 2010": 798,
   "Fatal 2011": 2,
   "Serious 2011": 99,
   "Slight 2011": 789,
   "Total 2011": 890,
   "Fatal 2012": 3,
   "Serious 2012": 96,
   "Slight 2012": 739,
   "Total 2012": 838,
   "Fatal 2013": 6,
   "Serious 2013": 57,
   "Slight 2013": 746,
   "Total 2013": 809,
   "Fatal 2014": 7,
   "Serious 2014": 56,
   "Slight 2014": 858,
   "Total 2014": 921
 },
 {
   "Area": "Merton",
   "Fatal 1999": 5,
   "Serious 1999": 92,
   "Slight 1999": 604,
   "Total 1999": 701,
   "Fatal 2000": 5,
   "Serious 2000": 91,
   "Slight 2000": 600,
   "Total 2000": 696,
   "Fatal 2001": 5,
   "Serious 2001": 96,
   "Slight 2001": 566,
   "Total 2001": 667,
   "Fatal 2002": 5,
   "Serious 2002": 91,
   "Slight 2002": 565,
   "Total 2002": 661,
   "Fatal 2003": 6,
   "Serious 2003": 90,
   "Slight 2003": 497,
   "Total 2003": 593,
   "Fatal 2004": 2,
   "Serious 2004": 73,
   "Slight 2004": 422,
   "Total 2004": 497,
   "Fatal 2005": 1,
   "Serious 2005": 64,
   "Slight 2005": 402,
   "Total 2005": 467,
   "Fatal 2006": 5,
   "Serious 2006": 59,
   "Slight 2006": 358,
   "Total 2006": 422,
   "Fatal 2007": 4,
   "Serious 2007": 54,
   "Slight 2007": 377,
   "Total 2007": 435,
   "Fatal 2008": 4,
   "Serious 2008": 56,
   "Slight 2008": 371,
   "Total 2008": 431,
   "Fatal 2009": 2,
   "Serious 2009": 50,
   "Slight 2009": 334,
   "Total 2009": 386,
   "Fatal 2010": 2,
   "Serious 2010": 37,
   "Slight 2010": 348,
   "Total 2010": 387,
   "Fatal 2011": 1,
   "Serious 2011": 45,
   "Slight 2011": 357,
   "Total 2011": 403,
   "Fatal 2012": 3,
   "Serious 2012": 58,
   "Slight 2012": 388,
   "Total 2012": 449,
   "Fatal 2013": 0,
   "Serious 2013": 32,
   "Slight 2013": 405,
   "Total 2013": 437,
   "Fatal 2014": 3,
   "Serious 2014": 45,
   "Slight 2014": 462,
   "Total 2014": 510
 },
 {
   "Area": "Newham",
   "Fatal 1999": 6,
   "Serious 1999": 130,
   "Slight 1999": 1028,
   "Total 1999": 1164,
   "Fatal 2000": 3,
   "Serious 2000": 139,
   "Slight 2000": 969,
   "Total 2000": 1111,
   "Fatal 2001": 8,
   "Serious 2001": 125,
   "Slight 2001": 969,
   "Total 2001": 1102,
   "Fatal 2002": 6,
   "Serious 2002": 118,
   "Slight 2002": 832,
   "Total 2002": 956,
   "Fatal 2003": 4,
   "Serious 2003": 115,
   "Slight 2003": 800,
   "Total 2003": 919,
   "Fatal 2004": 3,
   "Serious 2004": 98,
   "Slight 2004": 685,
   "Total 2004": 786,
   "Fatal 2005": 2,
   "Serious 2005": 75,
   "Slight 2005": 762,
   "Total 2005": 839,
   "Fatal 2006": 3,
   "Serious 2006": 69,
   "Slight 2006": 788,
   "Total 2006": 860,
   "Fatal 2007": 6,
   "Serious 2007": 82,
   "Slight 2007": 705,
   "Total 2007": 793,
   "Fatal 2008": 0,
   "Serious 2008": 81,
   "Slight 2008": 773,
   "Total 2008": 854,
   "Fatal 2009": 8,
   "Serious 2009": 80,
   "Slight 2009": 677,
   "Total 2009": 765,
   "Fatal 2010": 5,
   "Serious 2010": 69,
   "Slight 2010": 691,
   "Total 2010": 765,
   "Fatal 2011": 3,
   "Serious 2011": 67,
   "Slight 2011": 669,
   "Total 2011": 739,
   "Fatal 2012": 5,
   "Serious 2012": 72,
   "Slight 2012": 670,
   "Total 2012": 747,
   "Fatal 2013": 3,
   "Serious 2013": 51,
   "Slight 2013": 641,
   "Total 2013": 695,
   "Fatal 2014": 5,
   "Serious 2014": 55,
   "Slight 2014": 743,
   "Total 2014": 803
 },
 {
   "Area": "Redbridge",
   "Fatal 1999": 6,
   "Serious 1999": 144,
   "Slight 1999": 1009,
   "Total 1999": 1159,
   "Fatal 2000": 14,
   "Serious 2000": 149,
   "Slight 2000": 1008,
   "Total 2000": 1171,
   "Fatal 2001": 10,
   "Serious 2001": 152,
   "Slight 2001": 1031,
   "Total 2001": 1193,
   "Fatal 2002": 9,
   "Serious 2002": 139,
   "Slight 2002": 882,
   "Total 2002": 103,
   "Fatal 2003": 7,
   "Serious 2003": 139,
   "Slight 2003": 848,
   "Total 2003": 994,
   "Fatal 2004": 9,
   "Serious 2004": 98,
   "Slight 2004": 773,
   "Total 2004": 880,
   "Fatal 2005": 7,
   "Serious 2005": 80,
   "Slight 2005": 738,
   "Total 2005": 825,
   "Fatal 2006": 5,
   "Serious 2006": 84,
   "Slight 2006": 639,
   "Total 2006": 728,
   "Fatal 2007": 9,
   "Serious 2007": 68,
   "Slight 2007": 516,
   "Total 2007": 593,
   "Fatal 2008": 6,
   "Serious 2008": 71,
   "Slight 2008": 552,
   "Total 2008": 629,
   "Fatal 2009": 6,
   "Serious 2009": 54,
   "Slight 2009": 550,
   "Total 2009": 610,
   "Fatal 2010": 3,
   "Serious 2010": 73,
   "Slight 2010": 661,
   "Total 2010": 737,
   "Fatal 2011": 2,
   "Serious 2011": 67,
   "Slight 2011": 661,
   "Total 2011": 730,
   "Fatal 2012": 4,
   "Serious 2012": 84,
   "Slight 2012": 593,
   "Total 2012": 681,
   "Fatal 2013": 2,
   "Serious 2013": 48,
   "Slight 2013": 606,
   "Total 2013": 656,
   "Fatal 2014": 4,
   "Serious 2014": 43,
   "Slight 2014": 713,
   "Total 2014": 760
 },
 {
   "Area": "Richmond-upon-Thames",
   "Fatal 1999": 4,
   "Serious 1999": 107,
   "Slight 1999": 518,
   "Total 1999": 629,
   "Fatal 2000": 2,
   "Serious 2000": 95,
   "Slight 2000": 582,
   "Total 2000": 679,
   "Fatal 2001": 2,
   "Serious 2001": 80,
   "Slight 2001": 592,
   "Total 2001": 674,
   "Fatal 2002": 7,
   "Serious 2002": 95,
   "Slight 2002": 497,
   "Total 2002": 599,
   "Fatal 2003": 2,
   "Serious 2003": 107,
   "Slight 2003": 502,
   "Total 2003": 611,
   "Fatal 2004": 6,
   "Serious 2004": 70,
   "Slight 2004": 453,
   "Total 2004": 529,
   "Fatal 2005": 2,
   "Serious 2005": 62,
   "Slight 2005": 407,
   "Total 2005": 471,
   "Fatal 2006": 5,
   "Serious 2006": 82,
   "Slight 2006": 313,
   "Total 2006": 400,
   "Fatal 2007": 2,
   "Serious 2007": 70,
   "Slight 2007": 330,
   "Total 2007": 402,
   "Fatal 2008": 1,
   "Serious 2008": 57,
   "Slight 2008": 348,
   "Total 2008": 406,
   "Fatal 2009": 3,
   "Serious 2009": 48,
   "Slight 2009": 336,
   "Total 2009": 387,
   "Fatal 2010": 1,
   "Serious 2010": 68,
   "Slight 2010": 343,
   "Total 2010": 412,
   "Fatal 2011": 2,
   "Serious 2011": 65,
   "Slight 2011": 392,
   "Total 2011": 459,
   "Fatal 2012": 1,
   "Serious 2012": 51,
   "Slight 2012": 370,
   "Total 2012": 422,
   "Fatal 2013": 0,
   "Serious 2013": 46,
   "Slight 2013": 422,
   "Total 2013": 468,
   "Fatal 2014": 3,
   "Serious 2014": 49,
   "Slight 2014": 476,
   "Total 2014": 528
 },
 {
   "Area": "Southwark",
   "Fatal 1999": 7,
   "Serious 1999": 188,
   "Slight 1999": 1425,
   "Total 1999": 162,
   "Fatal 2000": 10,
   "Serious 2000": 218,
   "Slight 2000": 1287,
   "Total 2000": 1515,
   "Fatal 2001": 14,
   "Serious 2001": 211,
   "Slight 2001": 131,
   "Total 2001": 1535,
   "Fatal 2002": 8,
   "Serious 2002": 193,
   "Slight 2002": 1245,
   "Total 2002": 1446,
   "Fatal 2003": 4,
   "Serious 2003": 192,
   "Slight 2003": 1219,
   "Total 2003": 1415,
   "Fatal 2004": 9,
   "Serious 2004": 112,
   "Slight 2004": 984,
   "Total 2004": 1105,
   "Fatal 2005": 5,
   "Serious 2005": 120,
   "Slight 2005": 893,
   "Total 2005": 1018,
   "Fatal 2006": 7,
   "Serious 2006": 126,
   "Slight 2006": 937,
   "Total 2006": 107,
   "Fatal 2007": 5,
   "Serious 2007": 130,
   "Slight 2007": 769,
   "Total 2007": 904,
   "Fatal 2008": 8,
   "Serious 2008": 147,
   "Slight 2008": 858,
   "Total 2008": 1013,
   "Fatal 2009": 6,
   "Serious 2009": 118,
   "Slight 2009": 851,
   "Total 2009": 975,
   "Fatal 2010": 8,
   "Serious 2010": 155,
   "Slight 2010": 839,
   "Total 2010": 1002,
   "Fatal 2011": 5,
   "Serious 2011": 118,
   "Slight 2011": 869,
   "Total 2011": 992,
   "Fatal 2012": 4,
   "Serious 2012": 110,
   "Slight 2012": 822,
   "Total 2012": 936,
   "Fatal 2013": 5,
   "Serious 2013": 80,
   "Slight 2013": 796,
   "Total 2013": 881,
   "Fatal 2014": 5,
   "Serious 2014": 62,
   "Slight 2014": 946,
   "Total 2014": 1013
 },
 {
   "Area": "Sutton",
   "Fatal 1999": 8,
   "Serious 1999": 86,
   "Slight 1999": 569,
   "Total 1999": 663,
   "Fatal 2000": 7,
   "Serious 2000": 110,
   "Slight 2000": 514,
   "Total 2000": 631,
   "Fatal 2001": 5,
   "Serious 2001": 101,
   "Slight 2001": 547,
   "Total 2001": 653,
   "Fatal 2002": 6,
   "Serious 2002": 87,
   "Slight 2002": 445,
   "Total 2002": 538,
   "Fatal 2003": 6,
   "Serious 2003": 103,
   "Slight 2003": 438,
   "Total 2003": 547,
   "Fatal 2004": 3,
   "Serious 2004": 58,
   "Slight 2004": 433,
   "Total 2004": 494,
   "Fatal 2005": 2,
   "Serious 2005": 61,
   "Slight 2005": 447,
   "Total 2005": 510,
   "Fatal 2006": 2,
   "Serious 2006": 74,
   "Slight 2006": 437,
   "Total 2006": 513,
   "Fatal 2007": 2,
   "Serious 2007": 60,
   "Slight 2007": 387,
   "Total 2007": 449,
   "Fatal 2008": 2,
   "Serious 2008": 62,
   "Slight 2008": 394,
   "Total 2008": 458,
   "Fatal 2009": 3,
   "Serious 2009": 50,
   "Slight 2009": 335,
   "Total 2009": 388,
   "Fatal 2010": 2,
   "Serious 2010": 44,
   "Slight 2010": 343,
   "Total 2010": 389,
   "Fatal 2011": 4,
   "Serious 2011": 38,
   "Slight 2011": 365,
   "Total 2011": 407,
   "Fatal 2012": 2,
   "Serious 2012": 40,
   "Slight 2012": 338,
   "Total 2012": 380,
   "Fatal 2013": 2,
   "Serious 2013": 26,
   "Slight 2013": 364,
   "Total 2013": 392,
   "Fatal 2014": 4,
   "Serious 2014": 25,
   "Slight 2014": 338,
   "Total 2014": 367
 },
 {
   "Area": "Tower Hamlets",
   "Fatal 1999": 13,
   "Serious 1999": 119,
   "Slight 1999": 107,
   "Total 1999": 1202,
   "Fatal 2000": 10,
   "Serious 2000": 137,
   "Slight 2000": 993,
   "Total 2000": 114,
   "Fatal 2001": 5,
   "Serious 2001": 144,
   "Slight 2001": 1021,
   "Total 2001": 117,
   "Fatal 2002": 10,
   "Serious 2002": 132,
   "Slight 2002": 788,
   "Total 2002": 930,
   "Fatal 2003": 5,
   "Serious 2003": 123,
   "Slight 2003": 771,
   "Total 2003": 899,
   "Fatal 2004": 6,
   "Serious 2004": 121,
   "Slight 2004": 702,
   "Total 2004": 829,
   "Fatal 2005": 8,
   "Serious 2005": 97,
   "Slight 2005": 734,
   "Total 2005": 839,
   "Fatal 2006": 5,
   "Serious 2006": 109,
   "Slight 2006": 673,
   "Total 2006": 787,
   "Fatal 2007": 4,
   "Serious 2007": 135,
   "Slight 2007": 692,
   "Total 2007": 831,
   "Fatal 2008": 8,
   "Serious 2008": 131,
   "Slight 2008": 738,
   "Total 2008": 877,
   "Fatal 2009": 7,
   "Serious 2009": 91,
   "Slight 2009": 674,
   "Total 2009": 772,
   "Fatal 2010": 6,
   "Serious 2010": 83,
   "Slight 2010": 772,
   "Total 2010": 861,
   "Fatal 2011": 8,
   "Serious 2011": 95,
   "Slight 2011": 780,
   "Total 2011": 883,
   "Fatal 2012": 5,
   "Serious 2012": 156,
   "Slight 2012": 834,
   "Total 2012": 995,
   "Fatal 2013": 6,
   "Serious 2013": 79,
   "Slight 2013": 847,
   "Total 2013": 932,
   "Fatal 2014": 8,
   "Serious 2014": 80,
   "Slight 2014": 956,
   "Total 2014": 1044
 },
 {
   "Area": "Waltham Forest",
   "Fatal 1999": 5,
   "Serious 1999": 141,
   "Slight 1999": 826,
   "Total 1999": 972,
   "Fatal 2000": 10,
   "Serious 2000": 158,
   "Slight 2000": 819,
   "Total 2000": 987,
   "Fatal 2001": 11,
   "Serious 2001": 146,
   "Slight 2001": 725,
   "Total 2001": 882,
   "Fatal 2002": 6,
   "Serious 2002": 128,
   "Slight 2002": 711,
   "Total 2002": 845,
   "Fatal 2003": 6,
   "Serious 2003": 110,
   "Slight 2003": 722,
   "Total 2003": 838,
   "Fatal 2004": 1,
   "Serious 2004": 98,
   "Slight 2004": 651,
   "Total 2004": 750,
   "Fatal 2005": 5,
   "Serious 2005": 75,
   "Slight 2005": 697,
   "Total 2005": 777,
   "Fatal 2006": 1,
   "Serious 2006": 90,
   "Slight 2006": 627,
   "Total 2006": 718,
   "Fatal 2007": 3,
   "Serious 2007": 78,
   "Slight 2007": 589,
   "Total 2007": 670,
   "Fatal 2008": 3,
   "Serious 2008": 90,
   "Slight 2008": 639,
   "Total 2008": 732,
   "Fatal 2009": 5,
   "Serious 2009": 54,
   "Slight 2009": 533,
   "Total 2009": 592,
   "Fatal 2010": 2,
   "Serious 2010": 59,
   "Slight 2010": 572,
   "Total 2010": 633,
   "Fatal 2011": 4,
   "Serious 2011": 63,
   "Slight 2011": 595,
   "Total 2011": 662,
   "Fatal 2012": 1,
   "Serious 2012": 65,
   "Slight 2012": 543,
   "Total 2012": 609,
   "Fatal 2013": 3,
   "Serious 2013": 49,
   "Slight 2013": 508,
   "Total 2013": 560,
   "Fatal 2014": 2,
   "Serious 2014": 54,
   "Slight 2014": 702,
   "Total 2014": 758
 },
 {
   "Area": "Wandsworth",
   "Fatal 1999": 9,
   "Serious 1999": 161,
   "Slight 1999": 1071,
   "Total 1999": 1241,
   "Fatal 2000": 9,
   "Serious 2000": 170,
   "Slight 2000": 1086,
   "Total 2000": 1265,
   "Fatal 2001": 6,
   "Serious 2001": 187,
   "Slight 2001": 1042,
   "Total 2001": 1235,
   "Fatal 2002": 5,
   "Serious 2002": 157,
   "Slight 2002": 1047,
   "Total 2002": 1209,
   "Fatal 2003": 10,
   "Serious 2003": 132,
   "Slight 2003": 887,
   "Total 2003": 1029,
   "Fatal 2004": 8,
   "Serious 2004": 134,
   "Slight 2004": 909,
   "Total 2004": 1051,
   "Fatal 2005": 4,
   "Serious 2005": 114,
   "Slight 2005": 757,
   "Total 2005": 875,
   "Fatal 2006": 7,
   "Serious 2006": 123,
   "Slight 2006": 654,
   "Total 2006": 784,
   "Fatal 2007": 2,
   "Serious 2007": 159,
   "Slight 2007": 634,
   "Total 2007": 795,
   "Fatal 2008": 6,
   "Serious 2008": 100,
   "Slight 2008": 654,
   "Total 2008": 760,
   "Fatal 2009": 6,
   "Serious 2009": 109,
   "Slight 2009": 697,
   "Total 2009": 812,
   "Fatal 2010": 3,
   "Serious 2010": 99,
   "Slight 2010": 795,
   "Total 2010": 897,
   "Fatal 2011": 4,
   "Serious 2011": 105,
   "Slight 2011": 842,
   "Total 2011": 951,
   "Fatal 2012": 5,
   "Serious 2012": 100,
   "Slight 2012": 890,
   "Total 2012": 995,
   "Fatal 2013": 5,
   "Serious 2013": 94,
   "Slight 2013": 772,
   "Total 2013": 871,
   "Fatal 2014": 0,
   "Serious 2014": 80,
   "Slight 2014": 920,
   "Total 2014": 1
 },
 {
   "Area": "Westminster",
   "Fatal 1999": 12,
   "Serious 1999": 328,
   "Slight 1999": 2254,
   "Total 1999": 2594,
   "Fatal 2000": 19,
   "Serious 2000": 357,
   "Slight 2000": 214,
   "Total 2000": 2516,
   "Fatal 2001": 15,
   "Serious 2001": 345,
   "Slight 2001": 2032,
   "Total 2001": 2392,
   "Fatal 2002": 15,
   "Serious 2002": 301,
   "Slight 2002": 1794,
   "Total 2002": 211,
   "Fatal 2003": 11,
   "Serious 2003": 314,
   "Slight 2003": 1801,
   "Total 2003": 2126,
   "Fatal 2004": 9,
   "Serious 2004": 257,
   "Slight 2004": 162,
   "Total 2004": 1886,
   "Fatal 2005": 11,
   "Serious 2005": 233,
   "Slight 2005": 132,
   "Total 2005": 1564,
   "Fatal 2006": 13,
   "Serious 2006": 263,
   "Slight 2006": 1309,
   "Total 2006": 1585,
   "Fatal 2007": 5,
   "Serious 2007": 267,
   "Slight 2007": 1218,
   "Total 2007": 149,
   "Fatal 2008": 20,
   "Serious 2008": 245,
   "Slight 2008": 114,
   "Total 2008": 1405,
   "Fatal 2009": 15,
   "Serious 2009": 237,
   "Slight 2009": 1138,
   "Total 2009": 1390,
   "Fatal 2010": 4,
   "Serious 2010": 177,
   "Slight 2010": 1240,
   "Total 2010": 1421,
   "Fatal 2011": 6,
   "Serious 2011": 152,
   "Slight 2011": 1298,
   "Total 2011": 1456,
   "Fatal 2012": 9,
   "Serious 2012": 180,
   "Slight 2012": 1353,
   "Total 2012": 1542,
   "Fatal 2013": 6,
   "Serious 2013": 167,
   "Slight 2013": 1341,
   "Total 2013": 1514,
   "Fatal 2014": 6,
   "Serious 2014": 131,
   "Slight 2014": 146,
   "Total 2014": 1597
 },
 {
   "Area": "Heathrow Airport",
   "Fatal 1999": 0,
   "Serious 1999": 7,
   "Slight 1999": 77,
   "Total 1999": 84,
   "Fatal 2000": 0,
   "Serious 2000": 7,
   "Slight 2000": 100,
   "Total 2000": 107,
   "Fatal 2001": 1,
   "Serious 2001": 5,
   "Slight 2001": 77,
   "Total 2001": 83,
   "Fatal 2002": 1,
   "Serious 2002": 13,
   "Slight 2002": 56,
   "Total 2002": 70,
   "Fatal 2003": 0,
   "Serious 2003": 1,
   "Slight 2003": 43,
   "Total 2003": 44,
   "Fatal 2004": 0,
   "Serious 2004": 2,
   "Slight 2004": 20,
   "Total 2004": 22,
   "Fatal 2005": 0,
   "Serious 2005": 7,
   "Slight 2005": 63,
   "Total 2005": 70,
   "Fatal 2006": 0,
   "Serious 2006": 1,
   "Slight 2006": 18,
   "Total 2006": 19,
   "Fatal 2007": 0,
   "Serious 2007": 1,
   "Slight 2007": 54,
   "Total 2007": 55,
   "Fatal 2008": 1,
   "Serious 2008": 4,
   "Slight 2008": 39,
   "Total 2008": 44,
   "Fatal 2009": 1,
   "Serious 2009": 1,
   "Slight 2009": 38,
   "Total 2009": 40,
   "Fatal 2010": 0,
   "Serious 2010": 3,
   "Slight 2010": 37,
   "Total 2010": 40,
   "Fatal 2011": 0,
   "Serious 2011": 5,
   "Slight 2011": 20,
   "Total 2011": 25,
   "Fatal 2012": 1,
   "Serious 2012": 3,
   "Slight 2012": 34,
   "Total 2012": 38,
   "Fatal 2013": 1,
   "Serious 2013": 2,
   "Slight 2013": 28,
   "Total 2013": 31,
   "Fatal 2014": 2,
   "Serious 2014": 1,
   "Slight 2014": 35,
   "Total 2014": 38
 }
]